{
  "extends": ["tslint:recommended", "rxjs-tslint-rules"],
  "rules": {
    "arrow-parens": false,
    "deprecation": {
      "severity": "warn"
    },
    "component-class-suffix": true,
    "contextual-lifecycle": true,
    "directive-class-suffix": true,
    "directive-selector": [true, "attribute", "app", "camelCase"],
    "component-selector": [true, "element", "app", "kebab-case"],
    "import-blacklist": [true, "rxjs/Rx"],
    "interface-name": false,
    "no-console": [true, "debug", "info", "time", "timeEnd", "trace"],
    "no-empty": false,
    "no-inferrable-types": [true, "ignore-params"],
    "no-non-null-assertion": true,
    "no-redundant-jsdoc": true,
    "no-switch-case-fall-through": true,
    "no-use-before-declare": true,
    "no-var-requires": false,
    "object-literal-key-quotes": [true, "as-needed"],
    "object-literal-sort-keys": false,
    "quotemark": [true, "single"],
    "trailing-comma": false,
    "no-conflicting-lifecycle": true,
    "no-host-metadata-property": true,
    "no-input-rename": true,
    "no-inputs-metadata-property": true,
    "no-output-native": true,
    "no-output-on-prefix": true,
    "no-output-rename": true,
    "no-outputs-metadata-property": true,
    "template-banana-in-box": true,
    "template-no-negated-async": true,
    "use-lifecycle-interface": true,
    "use-pipe-transform-interface": true,

    "rxjs-no-internal": {
      "severity": "error"
    },
    "rxjs-no-unsafe-catch": {
      "options": [
        {
          "observable": "action(s|\\$)?"
        }
      ],
      "severity": "error"
    },
    "no-unbound-method": true,
    "no-sparse-arrays": true,
    "no-boolean-literal-compare": true,
    "max-classes-per-file": [true, 1],
    "array-type": [true, "array"],
    "member-access": true,
    "max-line-length": [true, 120],
    "member-ordering": [
      true,
      {
        "order": [
          "private-static-field",
          "protected-static-field",
          "public-static-field",
          "private-instance-field",
          "protected-instance-field",
          "public-instance-field",
          "constructor",
          "private-static-method",
          "protected-static-method",
          "public-static-method",
          "private-instance-method",
          "protected-instance-method",
          "public-instance-method"
        ],
        "alphabetize": true
      }
    ],
    "ordered-imports": [
      true,
      {
        "import-sources-order": "case-insensitive",
        "named-imports-order": "case-insensitive"
      }
    ],
    "no-consecutive-blank-lines": true,
    "no-string-literal": true,
    "no-tautology-expression": true,
    "no-var-keyword": true,
    "prefer-readonly": true,
    "arrow-return-shorthand": true
  },
  "rulesDirectory": ["codelyzer"]
}
